module assignment3

go 1.19

require (
	github.com/go-co-op/gocron v1.17.0 // indirect
	github.com/robfig/cron/v3 v3.0.1 // indirect
	golang.org/x/sync v0.0.0-20210220032951-036812b2e83c // indirect
)
